1.314109707484554211e-02
1.315264702324763467e-02
1.320937475886177492e-02
1.330336109949187967e-02
1.342966122554015498e-02
1.357926756271906482e-02
1.371193227116990210e-02
1.379937357137513317e-02
1.385404164984158255e-02
1.394501839137192445e-02
1.410816353255688223e-02
1.443442640659353682e-02
1.490242940166926211e-02
1.536898257724430422e-02
1.577555269180268976e-02
1.576141959291105926e-02
1.535206511066032099e-02
1.463247375334902033e-02
1.358563102786771067e-02
1.250508705236394978e-02
1.131177683573254475e-02
1.009024696449026780e-02
8.825144522171826655e-03
7.502689862709651866e-03
6.097183124624061014e-03
4.657485884903743434e-03
3.124432904239792322e-03
1.575210560925843382e-03
-4.303148172254851734e-05
-1.616991699634421709e-03
-3.155824230416249231e-03
-4.512533021666637230e-03
-5.686677794806167287e-03
-6.547727323170833558e-03
-7.061779236893063125e-03
-7.142237162929879722e-03
-6.861202577657387475e-03
-6.300463306093044211e-03
-5.509482809278733011e-03
-4.622057396732139924e-03
-3.724665594989985066e-03
-2.917738322076713405e-03
-2.203217371247579055e-03
-1.628426659932297920e-03
-1.175954313286937947e-03
-8.283994917410609105e-04
-5.784471078098385845e-04
-3.932518526384769187e-04
-2.666114373353534639e-04
-1.769372522548789083e-04
-1.178646069046257119e-04
-7.526459684071339713e-05
-4.410100963762447610e-05
-2.614624069864247840e-05
-1.595568741628124168e-05
-7.285285270972983018e-06
-2.372225470249419214e-06
-1.600101723894203727e-06
-1.409674925521720647e-06
-1.248564921445823631e-06
-1.108923849787473077e-06
-9.875877480499420167e-07
-8.818696684320214866e-07
-7.895126580033017217e-07
-7.086239322256496545e-07
-6.376155481863380485e-07
-5.751496383928167924e-07
-5.200934769853132498e-07
-4.714799717641635165e-07
-4.284768753143255382e-07
-3.903607766701185410e-07
-3.564986322782322807e-07
-3.263327007171738347e-07
-2.993711646093327387e-07
-2.751796373971849323e-07
-2.533769103775876183e-07
-2.336306408261922314e-07
-2.156556957717241091e-07
-1.992114032541110247e-07
-1.840990234405603022e-07
-1.701568125763241415e-07
-1.572554878624471542e-07
-1.452925181330461927e-07
-1.341884264718042540e-07
-1.238828790808422897e-07
-1.143330142077386221e-07
-1.055106937864259489e-07
-9.740096340543550774e-08
-8.999827744889607739e-08
-8.330231057531913759e-08
-7.731145600248045294e-08
-7.201702180694704587e-08
-6.739799038316969620e-08
-6.341934082255570297e-08
-1.127393883445667883e-07
-7.325496633361277935e-07
-3.304428398131637353e-06
-1.172239687902635797e-05
-3.309741976715720966e-05
-8.422288822194652202e-05
-1.472498191743241709e-04
-1.569832771765309113e-04
-1.509345456125871492e-04
-1.198268416556249835e-04
-1.457044635113498526e-04
-1.936847404823985536e-04
-2.296040460230316103e-04
-2.518344147110487471e-04
-2.646119570200108104e-04
-2.715707106073600679e-04
-2.750405349947121015e-04
-2.764641332076339707e-04
-2.766883592498398689e-04
-2.762152734940012200e-04
-2.753418579023725332e-04
-2.742400158784262629e-04
-2.730174104464470853e-04
-2.717484633924364436e-04
-2.704802795927364672e-04
-2.692447851028342246e-04
-2.680615153599447088e-04
-2.669419638155669391e-04
-2.658927851148529535e-04
-2.649174961456239727e-04
-2.640178190529136166e-04
-2.631943741975871021e-04
-2.624470792303956984e-04
-2.617754013357469775e-04
-2.611785155911789487e-04
-2.606554074935199289e-04
-2.602049743111578941e-04
-2.598260921286741579e-04
-2.595177067905249943e-04
-2.592788797387076023e-04
-2.591088529574841841e-04
-2.590070621671670395e-04
-2.589731714354587266e-04
-2.590070621671599922e-04
-2.591088529574802810e-04
-2.592788797387157338e-04
-2.595177067905166460e-04
-2.598260921286675443e-04
-2.602049743111511178e-04
-2.606554074935182484e-04
-2.611785155911767803e-04
-2.617754013357478991e-04
-2.624470792303901690e-04
-2.631943741975965889e-04
-2.640178190529254344e-04
-2.649174961456222921e-04
-2.658927851148495383e-04
-2.669419638155734985e-04
-2.680615153599525693e-04
-2.692447851028337367e-04
-2.704802795927471466e-04
-2.717484633924405093e-04
-2.730174104464594452e-04
-2.742400158784256124e-04
-2.753418579023741595e-04
-2.762152734939983469e-04
-2.766883592498426878e-04
-2.764641332076446501e-04
-2.750405349947027231e-04
-2.715707106073713436e-04
-2.646119570200193756e-04
-2.518344147110594808e-04
-2.296040460230347273e-04
-1.936847404824054112e-04
-1.457044635113635949e-04
-1.198268416556381972e-04
-1.509345456126086435e-04
-1.569832771765274960e-04
-1.472498191743352026e-04
-8.422288822195506011e-05
-3.309741976717097903e-05
-1.172239687902711860e-05
-3.304428398135260960e-06
-7.325496633374987163e-07
-1.127393883434152206e-07
-6.341934082223364516e-08
-6.739799038319063380e-08
-7.201702180701397471e-08
-7.731145600228989700e-08
-8.330231057497492458e-08
-8.999827744877336349e-08
-9.740096340558892658e-08
-1.055106937864757121e-07
-1.143330142074264772e-07
-1.238828790804872241e-07
-1.341884264715912252e-07
-1.452925181329859475e-07
-1.572554878623225875e-07
-1.701568125761066393e-07
-1.840990234402252742e-07
-1.992114032537456623e-07
-2.156556957719100593e-07
-2.336306408265330299e-07
-2.533769103775479666e-07
-2.751796373975791203e-07
-2.993711646095124685e-07
-3.263327007174050747e-07
-3.564986322790394502e-07
-3.903607766704165378e-07
-4.284768753147447666e-07
-4.714799717643737925e-07
-5.200934769851568663e-07
-5.751496383929905400e-07
-6.376155481864552566e-07
-7.086239322256464781e-07
-7.895126580032408412e-07
-8.818696684321321303e-07
-9.875877480502418664e-07
-1.108923849787885582e-06
-1.248564921445767303e-06
-1.409674925522415214e-06
-1.600101723894184033e-06
-2.372225470251441928e-06
-7.285285271022762298e-06
-1.595568741633739658e-05
-2.614624069872191993e-05
-4.410100963791300941e-05
-7.526459684071220451e-05
-1.178646069036457829e-04
-1.769372522538450131e-04
-2.666114373369803635e-04
-3.932518526414744125e-04
-5.784471078096736774e-04
-8.283994917387369232e-04
-1.175954313286262706e-03
-1.628426659935114677e-03
-2.203217371255232655e-03
-2.917738322078842778e-03
-3.724665594976606878e-03
-4.622057396718020142e-03
-5.509482809278479741e-03
-6.300463306096579577e-03
-6.861202577657830697e-03
-7.142237162929885794e-03
-7.061779236890877373e-03
-6.547727323163714253e-03
-5.686677794796483193e-03
-4.512533021656354656e-03
-3.155824230405482236e-03
-1.616991699636989100e-03
-4.303148174522371808e-05
1.575210560906064065e-03
3.124432904236269098e-03
4.657485884904067827e-03
6.097183124620715600e-03
7.502689862707682088e-03
8.825144522172477177e-03
1.009024696449068240e-02
1.131177683573482765e-02
1.250508705236136157e-02
1.358563102785469504e-02
1.463247375334768806e-02
1.535206511067949316e-02
1.576141959292357356e-02
1.577555269179723232e-02
1.536898257723446660e-02
1.490242940166339874e-02
1.443442640659347957e-02
1.410816353256077668e-02
1.394501839137533145e-02
1.385404164984284717e-02
1.379937357137548011e-02
1.371193227117037394e-02
1.357926756272049423e-02
1.342966122554228349e-02
1.330336109949331949e-02
1.320937475886232310e-02
1.315264702324790182e-02
